......................
----------------------------------------------------------------------
Ran 22 tests in 0.611s

OK
Name             Stmts   Miss Branch BrPart  Cover   Missing
------------------------------------------------------------
Collatz.py          24      0     10      0   100%
TestCollatz.py      92      0      0      0   100%
------------------------------------------------------------
TOTAL              116      0     10      0   100%
