1 10 20
100 200 125
201 210 89
900 1000 174
2 2 2
1 1 1
30 10 112
80 500 144
1 2 2
2 1 2
89 50 116
50 89 116
5001 2 238
249 2 128
34 34 14
13 3 20
235 23 128
2 546 144
1000 2000 182
2001 3000 217
889 23432 279
432 123 144
4321 12343 268
8897 231 262
3236 3237 49
212 234 128
22 11 21
123 12 119
543 653 145
234 6542 262
50000 2 324
234 23456 279
32222 3333 308
444 555 142
555 444 142
55 55 113
839 6462 262
664 23 145
324 546 144
134 536 144
23 10 21
1 124 119
12 204 125
1 99999 351
99999 1 351
2342 324 183
2123 12456 268
12123 12123 82
590 512 137
1234 54321 340
54321 12345 340
32847 2183 308
1234 1283 177
1 2 2
1 3 8
1 4 8
1 5 8
1 6 9
1 7 17
1 8 17
1 9 20
1 10 20
1 11 20
1 12 20
1 13 20
1 14 20
1 15 20
1 16 20
1 17 20
1 18 21
1 19 21
1 20 21
21 1 21
21 2 21
21 3 21
21 4 21
21 5 21
21 6 21
21 7 21
21 8 21
21 9 21
21 10 21
21 11 21
21 12 21
21 13 21
21 14 21
21 15 21
21 16 21
21 17 21
21 18 21
21 19 21
21 20 8
21 21 8
324 2345 183
1231 215 182
2123 21124 279
213 53534 340
1231 5235 238
12312 12523 263
32556 75346 340
12313 65474 340
12314 12575 263
12314 65448 340
32341 12434 308
11245 26462 282
26426 12324 282
24636 13462 282
21315 12435 279
12412 12434 157
12423 64364 340
64316 63163 330
64314 13476 340
23467 64364 340
41364 43541 288
14363 64364 340
43161 43617 226
56433 23635 340
65376 23413 340
23534 26346 264
13324 32556 308
23462 34534 311
23423 52466 324
23452 23462 251
23425 23426 176
22345 23467 269
