	.......
----------------------------------------------------------------------
Ran 19 tests in 8.404s

OK
Name             Stmts   Miss Branch BrPart  Cover   Missing
------------------------------------------------------------
Collatz.py          36      1     16      1    96%   61->62, 62
TestCollatz.py      83      0      0      0   100%
------------------------------------------------------------
TOTAL              119      1     16      1    99%